-- Merging decision tree log ---
manifest
ADDED from /home/evgeniy/Development/conductor/app/src/main/AndroidManifest.xml:2:1-21:12
	package
		ADDED from /home/evgeniy/Development/conductor/app/src/main/AndroidManifest.xml:3:5-43
		INJECTED from /home/evgeniy/Development/conductor/app/src/main/AndroidManifest.xml
		INJECTED from /home/evgeniy/Development/conductor/app/src/main/AndroidManifest.xml
	android:versionName
		INJECTED from /home/evgeniy/Development/conductor/app/src/main/AndroidManifest.xml
		INJECTED from /home/evgeniy/Development/conductor/app/src/main/AndroidManifest.xml
	xmlns:android
		ADDED from /home/evgeniy/Development/conductor/app/src/main/AndroidManifest.xml:2:11-69
	android:versionCode
		INJECTED from /home/evgeniy/Development/conductor/app/src/main/AndroidManifest.xml
		INJECTED from /home/evgeniy/Development/conductor/app/src/main/AndroidManifest.xml
application
ADDED from /home/evgeniy/Development/conductor/app/src/main/AndroidManifest.xml:5:5-19:19
MERGED from [com.android.support:appcompat-v7:25.3.1] /home/evgeniy/.android/build-cache/447960d94cae5261054b51555fb298e57bf263f6/output/AndroidManifest.xml:29:5-20
MERGED from [com.android.support:support-v4:25.3.1] /home/evgeniy/.android/build-cache/36a6f73b2954c04ace254afa167904068f5d14a4/output/AndroidManifest.xml:29:5-20
MERGED from [com.android.support:support-fragment:25.3.1] /home/evgeniy/.android/build-cache/cb77e5c8dd25cc3cd3787410b978bb3b5e96f31b/output/AndroidManifest.xml:29:5-20
MERGED from [com.android.support:support-media-compat:25.3.1] /home/evgeniy/.android/build-cache/e603bd806ad8433f684ae7d2ec1a6e8d40fe4a04/output/AndroidManifest.xml:29:5-20
MERGED from [com.android.support:support-core-ui:25.3.1] /home/evgeniy/.android/build-cache/528e1d9b7acbdc4a7490089c71553f01117fea6b/output/AndroidManifest.xml:29:5-20
MERGED from [com.android.support:support-core-utils:25.3.1] /home/evgeniy/.android/build-cache/5181598259dd7c89cc3ddddac9911caf5598deb2/output/AndroidManifest.xml:29:5-20
MERGED from [com.android.support:animated-vector-drawable:25.3.1] /home/evgeniy/.android/build-cache/39f4db1462f35bace62d83559f438b8ae9cddc0d/output/AndroidManifest.xml:26:5-20
MERGED from [com.android.support:support-vector-drawable:25.3.1] /home/evgeniy/.android/build-cache/3e82991252dc174dabb04f37ec760bf0c7b91a4f/output/AndroidManifest.xml:26:5-20
MERGED from [com.android.support:support-compat:25.3.1] /home/evgeniy/.android/build-cache/e559b0d05404fd5f0165ab6de340989d811cd2d7/output/AndroidManifest.xml:29:5-20
MERGED from [com.android.support.constraint:constraint-layout:1.0.2] /home/evgeniy/.android/build-cache/921f253b3b276192dabc8e438fece3f44379b7fb/output/AndroidManifest.xml:9:5-20
	android:label
		ADDED from /home/evgeniy/Development/conductor/app/src/main/AndroidManifest.xml:8:9-41
	android:supportsRtl
		ADDED from /home/evgeniy/Development/conductor/app/src/main/AndroidManifest.xml:10:9-35
	android:roundIcon
		ADDED from /home/evgeniy/Development/conductor/app/src/main/AndroidManifest.xml:9:9-54
	android:allowBackup
		ADDED from /home/evgeniy/Development/conductor/app/src/main/AndroidManifest.xml:6:9-35
	android:icon
		ADDED from /home/evgeniy/Development/conductor/app/src/main/AndroidManifest.xml:7:9-43
	android:theme
		ADDED from /home/evgeniy/Development/conductor/app/src/main/AndroidManifest.xml:11:9-40
activity#com.example.steven.conductor.MainActivity
ADDED from /home/evgeniy/Development/conductor/app/src/main/AndroidManifest.xml:12:9-18:20
	android:name
		ADDED from /home/evgeniy/Development/conductor/app/src/main/AndroidManifest.xml:12:19-47
intent-filter#android.intent.action.MAIN+android.intent.category.LAUNCHER
ADDED from /home/evgeniy/Development/conductor/app/src/main/AndroidManifest.xml:13:13-17:29
action#android.intent.action.MAIN
ADDED from /home/evgeniy/Development/conductor/app/src/main/AndroidManifest.xml:14:17-69
	android:name
		ADDED from /home/evgeniy/Development/conductor/app/src/main/AndroidManifest.xml:14:25-66
category#android.intent.category.LAUNCHER
ADDED from /home/evgeniy/Development/conductor/app/src/main/AndroidManifest.xml:16:17-77
	android:name
		ADDED from /home/evgeniy/Development/conductor/app/src/main/AndroidManifest.xml:16:27-74
uses-sdk
INJECTED from /home/evgeniy/Development/conductor/app/src/main/AndroidManifest.xml reason: use-sdk injection requested
MERGED from [com.android.support:appcompat-v7:25.3.1] /home/evgeniy/.android/build-cache/447960d94cae5261054b51555fb298e57bf263f6/output/AndroidManifest.xml:21:5-23:78
MERGED from [com.android.support:support-v4:25.3.1] /home/evgeniy/.android/build-cache/36a6f73b2954c04ace254afa167904068f5d14a4/output/AndroidManifest.xml:21:5-23:54
MERGED from [com.android.support:support-fragment:25.3.1] /home/evgeniy/.android/build-cache/cb77e5c8dd25cc3cd3787410b978bb3b5e96f31b/output/AndroidManifest.xml:21:5-23:60
MERGED from [com.android.support:support-media-compat:25.3.1] /home/evgeniy/.android/build-cache/e603bd806ad8433f684ae7d2ec1a6e8d40fe4a04/output/AndroidManifest.xml:21:5-23:63
MERGED from [com.android.support:support-core-ui:25.3.1] /home/evgeniy/.android/build-cache/528e1d9b7acbdc4a7490089c71553f01117fea6b/output/AndroidManifest.xml:21:5-23:58
MERGED from [com.android.support:support-core-utils:25.3.1] /home/evgeniy/.android/build-cache/5181598259dd7c89cc3ddddac9911caf5598deb2/output/AndroidManifest.xml:21:5-23:61
MERGED from [com.android.support:animated-vector-drawable:25.3.1] /home/evgeniy/.android/build-cache/39f4db1462f35bace62d83559f438b8ae9cddc0d/output/AndroidManifest.xml:20:5-44
MERGED from [com.android.support:support-vector-drawable:25.3.1] /home/evgeniy/.android/build-cache/3e82991252dc174dabb04f37ec760bf0c7b91a4f/output/AndroidManifest.xml:20:5-43
MERGED from [com.android.support:support-compat:25.3.1] /home/evgeniy/.android/build-cache/e559b0d05404fd5f0165ab6de340989d811cd2d7/output/AndroidManifest.xml:21:5-23:58
MERGED from [com.android.support.constraint:constraint-layout:1.0.2] /home/evgeniy/.android/build-cache/921f253b3b276192dabc8e438fece3f44379b7fb/output/AndroidManifest.xml:5:5-7:41
	tools:overrideLibrary
		ADDED from [com.android.support:appcompat-v7:25.3.1] /home/evgeniy/.android/build-cache/447960d94cae5261054b51555fb298e57bf263f6/output/AndroidManifest.xml:23:9-75
	android:targetSdkVersion
		INJECTED from /home/evgeniy/Development/conductor/app/src/main/AndroidManifest.xml
		INJECTED from /home/evgeniy/Development/conductor/app/src/main/AndroidManifest.xml
	android:minSdkVersion
		INJECTED from /home/evgeniy/Development/conductor/app/src/main/AndroidManifest.xml
		INJECTED from /home/evgeniy/Development/conductor/app/src/main/AndroidManifest.xml
meta-data#android.support.VERSION
ADDED from [com.android.support:appcompat-v7:25.3.1] /home/evgeniy/.android/build-cache/447960d94cae5261054b51555fb298e57bf263f6/output/AndroidManifest.xml:25:5-27:34
MERGED from [com.android.support:support-v4:25.3.1] /home/evgeniy/.android/build-cache/36a6f73b2954c04ace254afa167904068f5d14a4/output/AndroidManifest.xml:25:5-27:34
MERGED from [com.android.support:support-fragment:25.3.1] /home/evgeniy/.android/build-cache/cb77e5c8dd25cc3cd3787410b978bb3b5e96f31b/output/AndroidManifest.xml:25:5-27:34
MERGED from [com.android.support:support-media-compat:25.3.1] /home/evgeniy/.android/build-cache/e603bd806ad8433f684ae7d2ec1a6e8d40fe4a04/output/AndroidManifest.xml:25:5-27:34
MERGED from [com.android.support:support-core-ui:25.3.1] /home/evgeniy/.android/build-cache/528e1d9b7acbdc4a7490089c71553f01117fea6b/output/AndroidManifest.xml:25:5-27:34
MERGED from [com.android.support:support-core-utils:25.3.1] /home/evgeniy/.android/build-cache/5181598259dd7c89cc3ddddac9911caf5598deb2/output/AndroidManifest.xml:25:5-27:34
MERGED from [com.android.support:animated-vector-drawable:25.3.1] /home/evgeniy/.android/build-cache/39f4db1462f35bace62d83559f438b8ae9cddc0d/output/AndroidManifest.xml:22:5-24:34
MERGED from [com.android.support:support-vector-drawable:25.3.1] /home/evgeniy/.android/build-cache/3e82991252dc174dabb04f37ec760bf0c7b91a4f/output/AndroidManifest.xml:22:5-24:34
MERGED from [com.android.support:support-compat:25.3.1] /home/evgeniy/.android/build-cache/e559b0d05404fd5f0165ab6de340989d811cd2d7/output/AndroidManifest.xml:25:5-27:34
	android:value
		ADDED from [com.android.support:appcompat-v7:25.3.1] /home/evgeniy/.android/build-cache/447960d94cae5261054b51555fb298e57bf263f6/output/AndroidManifest.xml:27:9-31
	android:name
		ADDED from [com.android.support:appcompat-v7:25.3.1] /home/evgeniy/.android/build-cache/447960d94cae5261054b51555fb298e57bf263f6/output/AndroidManifest.xml:26:9-47
